[{
  "url" : "https://www.youtube.com/embed/4G9qnfcg1LQ",
  "tag" : "marina kaye freeze you out chanson music ",
  "isLocal" : false
},
{
  "url" : "https://www.youtube.com/embed/0MQXnz1DZc4",
  "tag" : "rock rabbit emilie bovet sweet jane chanson ",
  "isLocal" : false
},
  {
    "url" : "assets/local-videos/cat.mp4",
    "tag" : "cat drole humour fun end ",
    "type" : "video/mp4",
    "isLocal" : true
  },
  {
    "url" : "assets/local-videos/danse-kizumba.mp4",
    "tag" : "kizumba diffiles compliqué",
    "type" : "video/mp4",
    "isLocal" : true
  },
  {
    "url" : "https://www.youtube.com/embed/Vf2AFqtXyyI" ,
    "tag" : "hip hop la vague facile débutant ",
    "isLocal" : false
  },
  {
    "url" : "https://www.youtube.com/embed/_2zcyLAgWaE" ,
    "tag" : "salsa cubaine pas de base facile débutant",
    "isLocal" : false
  },
  {
    "url" : "https://www.youtube.com/embed/Pec91UxL6CY"  ,
    "tag" : "salsa portoricaine pas de base facile débutant",
    "isLocal" : false
  },
  {
    "url" : "https://www.youtube.com/embed/qKMwn7GFF7E"  ,
    "tag" : "salsa portoricaine figure simple facile",
    "isLocal" : false
  },
  {
    "url" : "https://www.youtube.com/embed/i4KmEF278zY"  ,
    "tag" : "salsa chris marques figure confirmé compliquée ",
    "isLocal" : false
  }


]
